Advance Preprocessing – Machine Learning for Data Scientist
…
prop_miss_case(airquality)

[1] 0.2745098

Code

pct_miss_case(airquality)

[1] 27.45098

Code

miss_case_summary(airquality)

# A tibble: 153 × 3
    case n_miss pct_miss
   <int>  <int>    <dbl>
 1     5      2     33.3
 2    27      2     33.3
 3     6      1     16.7
 4    10      1     16.7
 5    11      1     16.7
 6    25      1     16.7
 7    26      1     16.7
 8    32      1     16.7
 9    33      1     16.7
10    34      1     16.7
# ℹ 143 more rows
…
